Day 1: Introduction to the CCR, and to R • RPG520
…
First install BiocManager
from CRAN, then use BiocManager::install() to install
Bioconductor packages.

‘Tidy’ data

library(readr)
library(dplyr)

all_file <- file.choose()
all <- read_csv(all_file)

all
#> # A tibble: 128 × 21
#>    cod   diagnosis sex     age BT    remission CR    date.cr `t(4;11)` `t(9;22)`
#>    <chr> <chr>     <chr> <dbl> <chr> <chr>     <chr> <chr>   <lgl>     <lgl>    
#>  1 1005  5/21/1997 M        53 B2    CR        CR    8/6/19… FALSE     TRUE     
#>  2 1010  3/29/2000 M        19 B2    CR        CR    6/27/2… FALSE     FALSE    
#>  3 3002  6/24/1998 F        52 B4    CR        CR    8/17/1… NA        NA       
#>  4 4006  7/17/1997 M        38 B1    CR        CR    9/8/19… TRUE      FALSE    
#>  5 4007  7/22/1997 M        57 B2    CR        CR    9/17/1… FALSE     FALSE    
#>  6 4008  7/30/1997 M        17 B1    CR        CR    9/27/1… FALSE     FALSE    
#>  7 4010  10/30/19… F        18 B1    CR        CR    1/7/19… FALSE     FALSE    
#>  8 4016  2/10/2000 M        16 B1    CR        CR    4/17/2… FALSE     FALSE    
#>  9 6002  3/19/1997 M        15 B2    CR        CR    6/9/19… FALSE     FALSE    
#> 10 8001  1/15/1997 M        40 B2    CR        CR    3/26/1… FALSE     FALSE    
#> # ℹ 118 more rows
#> # ℹ 11 more variables: cyto.normal <lgl>, citog <chr>, mol.biol <chr>,
#> #   `fusion protein` <chr>, mdr <chr>, kinet <chr>, ccr <lgl>, relapse <lgl>,
#> #   transplant <lgl>, f.u <chr>, `date last seen` <chr>
…
