Day 2: Data Management, Statistical Analysis, and Visualization • RPG520
…
Read the entire dataset into R with the command
readr::read_csv(). Assign the data to a variable
brfss.

brfss <- readr::read_csv(brfss_file_path)
#> Rows: 20000 Columns: 5
#> ── Column specification ────────────────────────────────────────────────────────
#> Delimiter: ","
#> chr (1): Sex
#> dbl (4): Age, Weight, Height, Year
#> 
#> ℹ Use `spec()` to retrieve the full column specification for this data.
#> ℹ Specify the column types or set `show_col_types = FALSE` to quiet this message.
brfss
#> # A tibble: 20,000 × 5
#>      Age Weight Sex    Height  Year
#>    <dbl>  <dbl> <chr>   <dbl> <dbl>
#>  1    31   49.0 Female   157.  1990
#>  2    57   81.6 Female   157.  1990
#>  3    43   80.3 Male     178.  1990
#>  4    72   70.3 Male     170.  1990
#>  5    31   49.9 Female   155.  1990
#>  6    58   54.4 Female   155.  1990
#>  7    45   69.9 Male     173.  1990
#>  8    37   68.0 Male     180.  1990
#>  9    33   65.8 Female   170.  1990
#> 10    75   70.8 Female   152.  1990
#> # ℹ 19,990 more rows
…
y <- c(2010, 1991, 1990, NA)
factor(y, levels = c("1990", "2010"))
#> [1] 2010 <NA> 1990 <NA>
#> Levels: 1990 2010

Use the dplyr mutate() function to change ‘Sex’ and
‘Year’ to factors.

brfss |>
    mutate(
        Sex = factor(Sex, levels = c("Female", "Male")),
        Year = factor(Year, levels = c("1990", "2010"))
    )
#> # A tibble: 20,000 × 5
#>      Age Weight Sex    Height Year 
#>    <dbl>  <dbl> <fct>   <dbl> <fct>
#>  1    31   49.0 Female   157. 1990 
#>  2    57   81.6 Female   157. 1990 
#>  3    43   80.3 Male     178. 1990 
#>  4    72   70.3 Male     170. 1990 
#>  5    31   49.9 Female   155. 1990 
#>  6    58   54.4 Female   155. 1990 
#>  7    45   69.9 Male     173. 1990 
#>  8    37   68.0 Male     180. 1990 
#>  9    33   65.8 Female   170. 1990 
#> 10    75   70.8 Female   152. 1990 
#> # ℹ 19,990 more rows
…
all_subset
#> # A tibble: 107 × 5
#>    cod   sex     age BorT  mol.biol
#>    <chr> <chr> <dbl> <chr> <chr>   
#>  1 1005  M        53 B     BCR/ABL 
#>  2 1010  M        19 B     NEG     
#>  3 3002  F        52 B     BCR/ABL 
#>  4 4007  M        57 B     NEG     
#>  5 4008  M        17 B     NEG     
#>  6 4010  F        18 B     NEG     
#>  7 4016  M        16 B     NEG     
#>  8 6002  M        15 B     NEG     
#>  9 8001  M        40 B     BCR/ABL 
#> 10 8011  M        33 B     BCR/ABL 
#> # ℹ 97 more rows
…
